Plotly Examples
…
## The following object is masked from 'package:graphics':
## 
##     layout

data("instacart")
instacart = instacart %>%
filter(department == "snacks", reordered == 1) %>%
mutate(reordered = recode(reordered, "1" = "Yes", "0" = "No"), 
       order_dow = recode(order_dow, "0" = "Sunday", "1" = "Monday", 
                          "2" = "Tuesday", "3" = "Wednesday", "4" = "Thursday", 
                          "5" = "Friday", "6" = "Saturday")) %>%
select(aisle, product_name, order_hour_of_day, order_dow, reordered, product_id)
instacart

## # A tibble: 69,102 x 6
##    aisle   product_name     order_hour_of_d… order_dow reordered product_id
##    <chr>   <chr>                       <int> <chr>     <chr>          <int>
##  1 cracke… Crackers, Oyster                8 Wednesday Yes            43560
##  2 candy … Almonds                        17 Saturday  Yes            13424
##  3 energy… Chocolate Mint …               13 Tuesday   Yes            48070
##  4 chips … Reduced Fat Ori…               16 Monday    Yes            17417
##  5 cookie… Original Thins                 16 Monday    Yes            42013
##  6 cracke… Town House  Med…               16 Monday    Yes            36570
##  7 chips … Tortilla Chips …               16 Thursday  Yes            34966
##  8 nuts s… Organic Whole C…               17 Monday    Yes            35140
##  9 chips … Kettle Cooked P…                8 Sunday    Yes            47211
## 10 trail … Cheddar Snack M…                8 Sunday    Yes            45685
## # … with 69,092 more rows
…
